<pu: Psychedelic Loli>
<crunchy clean tone>
<can use single notes while transitioning other wise let them ring out slightly>

<main>

E|--------------------------------------------------------------------------------------------------|
B|-----------------------------------------------0--------------------------------------------------|
G|--------5--------5--------5--------5--------5-----------------------------------------------------|
D|-----9--------9--------9--------9--------7--------3--------3--------3--------5--------3-----------|
A|--8--------8--------8--------8--------5--------------7--------7--------7--------3--------7-----7--|
E|--------------------------------------------------------5--------5--------5--------3--------3-----|
A|--------------------------------------------------------------------------------------------------|


<alt>
E|--------------------------------------------------------------------------------------------------|
B|--------------------------------------------------------------------------------------------------|
G|--------------------------------5--------3--------------------------------------------------------|
D|-----------------------------------3--------7-----7-----------------------------------------------|
A|-----------------------------3--------3--------3--------------------------------------------------|
E|--------------------------------------------------------------------------------------------------|
A|--0--00--0--0--00--0--00--0-----------------------------------------------------------------------|